info face="Boogaloo" size=42 bold=0 italic=0 charset="" unicode=1 stretchH=100 smooth=1 aa=1 padding=0,0,0,0 spacing=2,2
common lineHeight=50 base=40 scaleW=512 scaleH=256 pages=1 packed=0 alphaChnl=0 redChnl=4 greenChnl=4 blueChnl=4
page id=0 file="ff42.png"
chars count=105
char id=32   x=2     y=2     width=0     height=0     xoffset=0     yoffset=40    xadvance=10    page=0  chnl=0
char id=33   x=2     y=6     width=8     height=32    xoffset=2     yoffset=9     xadvance=11    page=0  chnl=0
char id=34   x=2     y=42    width=13    height=13    xoffset=0     yoffset=10    xadvance=15    page=0  chnl=0
char id=35   x=14    y=2     width=28    height=33    xoffset=4     yoffset=9     xadvance=36    page=0  chnl=0
char id=36   x=2     y=59    width=17    height=37    xoffset=2     yoffset=9     xadvance=21    page=0  chnl=0
char id=37   x=2     y=100   width=27    height=29    xoffset=1     yoffset=12    xadvance=29    page=0  chnl=0
char id=38   x=23    y=39    width=23    height=32    xoffset=1     yoffset=11    xadvance=23    page=0  chnl=0
char id=39   x=23    y=75    width=6     height=13    xoffset=0     yoffset=10    xadvance=8     page=0  chnl=0
char id=40   x=2     y=133   width=10    height=42    xoffset=4     yoffset=9     xadvance=15    page=0  chnl=0
char id=41   x=2     y=179   width=10    height=42    xoffset=1     yoffset=9     xadvance=15    page=0  chnl=0
char id=42   x=2     y=225   width=17    height=17    xoffset=2     yoffset=11    xadvance=20    page=0  chnl=0
char id=43   x=46    y=2     width=25    height=27    xoffset=5     yoffset=13    xadvance=35    page=0  chnl=0
char id=44   x=16    y=133   width=8     height=15    xoffset=1     yoffset=31    xadvance=11    page=0  chnl=0
char id=45   x=2     y=246   width=11    height=6     xoffset=1     yoffset=27    xadvance=14    page=0  chnl=0
char id=46   x=16    y=152   width=7     height=9     xoffset=1     yoffset=32    xadvance=11    page=0  chnl=0
char id=47   x=16    y=165   width=20    height=35    xoffset=-2    yoffset=9     xadvance=17    page=0  chnl=0
char id=48   x=28    y=133   width=17    height=28    xoffset=2     yoffset=13    xadvance=20    page=0  chnl=0
char id=49   x=23    y=204   width=12    height=29    xoffset=3     yoffset=12    xadvance=20    page=0  chnl=0
char id=50   x=39    y=204   width=18    height=29    xoffset=1     yoffset=13    xadvance=20    page=0  chnl=0
char id=51   x=40    y=165   width=16    height=27    xoffset=2     yoffset=14    xadvance=20    page=0  chnl=0
char id=52   x=33    y=75    width=19    height=30    xoffset=1     yoffset=12    xadvance=20    page=0  chnl=0
char id=53   x=50    y=33    width=15    height=29    xoffset=3     yoffset=13    xadvance=20    page=0  chnl=0
char id=54   x=49    y=109   width=16    height=29    xoffset=3     yoffset=12    xadvance=20    page=0  chnl=0
char id=55   x=56    y=66    width=16    height=28    xoffset=3     yoffset=13    xadvance=20    page=0  chnl=0
char id=56   x=69    y=33    width=17    height=29    xoffset=2     yoffset=12    xadvance=20    page=0  chnl=0
char id=57   x=60    y=142   width=17    height=30    xoffset=2     yoffset=12    xadvance=20    page=0  chnl=0
char id=58   x=60    y=176   width=7     height=21    xoffset=1     yoffset=20    xadvance=10    page=0  chnl=0
char id=59   x=75    y=2     width=9     height=26    xoffset=1     yoffset=20    xadvance=11    page=0  chnl=0
char id=60   x=88    y=2     width=25    height=25    xoffset=5     yoffset=15    xadvance=35    page=0  chnl=0
char id=61   x=23    y=237   width=26    height=15    xoffset=5     yoffset=20    xadvance=35    page=0  chnl=0
char id=62   x=69    y=98    width=25    height=25    xoffset=5     yoffset=15    xadvance=35    page=0  chnl=0
char id=63   x=61    y=201   width=18    height=31    xoffset=-1    yoffset=10    xadvance=18    page=0  chnl=0
char id=64   x=90    y=31    width=32    height=37    xoffset=1     yoffset=9     xadvance=34    page=0  chnl=0
char id=65   x=81    y=127   width=21    height=32    xoffset=0     yoffset=11    xadvance=22    page=0  chnl=0
char id=66   x=81    y=163   width=18    height=31    xoffset=3     yoffset=10    xadvance=22    page=0  chnl=0
char id=67   x=98    y=72    width=19    height=31    xoffset=1     yoffset=10    xadvance=20    page=0  chnl=0
char id=68   x=83    y=198   width=17    height=31    xoffset=3     yoffset=10    xadvance=21    page=0  chnl=0
char id=69   x=103   y=163   width=15    height=30    xoffset=3     yoffset=11    xadvance=19    page=0  chnl=0
char id=70   x=106   y=107   width=15    height=31    xoffset=3     yoffset=11    xadvance=18    page=0  chnl=0
char id=71   x=121   y=72    width=19    height=31    xoffset=2     yoffset=10    xadvance=21    page=0  chnl=0
char id=72   x=104   y=197   width=17    height=33    xoffset=3     yoffset=8     xadvance=22    page=0  chnl=0
char id=73   x=122   y=142   width=7     height=32    xoffset=4     yoffset=10    xadvance=13    page=0  chnl=0
char id=74   x=125   y=107   width=15    height=31    xoffset=1     yoffset=10    xadvance=18    page=0  chnl=0
char id=75   x=126   y=2     width=20    height=31    xoffset=3     yoffset=10    xadvance=22    page=0  chnl=0
char id=76   x=126   y=37    width=14    height=31    xoffset=3     yoffset=10    xadvance=16    page=0  chnl=0
char id=77   x=125   y=178   width=24    height=32    xoffset=2     yoffset=10    xadvance=27    page=0  chnl=0
char id=78   x=133   y=142   width=19    height=32    xoffset=2     yoffset=10    xadvance=23    page=0  chnl=0
char id=79   x=125   y=214   width=20    height=31    xoffset=1     yoffset=10    xadvance=22    page=0  chnl=0
char id=80   x=149   y=214   width=17    height=32    xoffset=3     yoffset=10    xadvance=20    page=0  chnl=0
char id=81   x=144   y=37    width=21    height=34    xoffset=1     yoffset=10    xadvance=22    page=0  chnl=0
char id=82   x=144   y=75    width=20    height=33    xoffset=3     yoffset=10    xadvance=23    page=0  chnl=0
char id=83   x=150   y=2     width=19    height=31    xoffset=0     yoffset=10    xadvance=20    page=0  chnl=0
char id=84   x=153   y=178   width=17    height=31    xoffset=0     yoffset=10    xadvance=16    page=0  chnl=0
char id=85   x=170   y=213   width=18    height=31    xoffset=2     yoffset=10    xadvance=22    page=0  chnl=0
char id=86   x=156   y=112   width=21    height=32    xoffset=0     yoffset=9     xadvance=20    page=0  chnl=0
char id=87   x=168   y=75    width=28    height=31    xoffset=1     yoffset=10    xadvance=28    page=0  chnl=0
char id=88   x=169   y=37    width=21    height=32    xoffset=0     yoffset=10    xadvance=19    page=0  chnl=0
char id=89   x=173   y=2     width=21    height=31    xoffset=0     yoffset=10    xadvance=19    page=0  chnl=0
char id=90   x=194   y=37    width=19    height=29    xoffset=1     yoffset=11    xadvance=19    page=0  chnl=0
char id=91   x=174   y=148   width=13    height=40    xoffset=3     yoffset=10    xadvance=16    page=0  chnl=0
char id=92   x=191   y=110   width=20    height=35    xoffset=-1    yoffset=9     xadvance=17    page=0  chnl=0
char id=93   x=191   y=149   width=14    height=40    xoffset=0     yoffset=10    xadvance=16    page=0  chnl=0
char id=94   x=61    y=236   width=28    height=18    xoffset=7     yoffset=8     xadvance=42    page=0  chnl=0
char id=95   x=170   y=248   width=22    height=6     xoffset=0     yoffset=44    xadvance=21    page=0  chnl=0
char id=96   x=106   y=142   width=11    height=8     xoffset=3     yoffset=11    xadvance=21    page=0  chnl=0
char id=97   x=76    y=72    width=13    height=22    xoffset=1     yoffset=20    xadvance=16    page=0  chnl=0
char id=98   x=200   y=70    width=14    height=32    xoffset=3     yoffset=9     xadvance=18    page=0  chnl=0
char id=99   x=156   y=148   width=14    height=21    xoffset=1     yoffset=20    xadvance=15    page=0  chnl=0
char id=100  x=192   y=193   width=14    height=32    xoffset=1     yoffset=9     xadvance=17    page=0  chnl=0
char id=101  x=196   y=229   width=14    height=21    xoffset=1     yoffset=20    xadvance=15    page=0  chnl=0
char id=102  x=209   y=149   width=15    height=32    xoffset=0     yoffset=9     xadvance=13    page=0  chnl=0
char id=103  x=198   y=2     width=17    height=30    xoffset=0     yoffset=20    xadvance=17    page=0  chnl=0
char id=104  x=215   y=106   width=15    height=32    xoffset=1     yoffset=9     xadvance=18    page=0  chnl=0
char id=105  x=217   y=36    width=7     height=29    xoffset=2     yoffset=12    xadvance=10    page=0  chnl=0
char id=106  x=210   y=185   width=12    height=38    xoffset=-2    yoffset=12    xadvance=11    page=0  chnl=0
char id=107  x=218   y=69    width=15    height=32    xoffset=3     yoffset=9     xadvance=17    page=0  chnl=0
char id=108  x=181   y=110   width=5     height=32    xoffset=3     yoffset=9     xadvance=10    page=0  chnl=0
char id=109  x=214   y=227   width=23    height=21    xoffset=3     yoffset=20    xadvance=28    page=0  chnl=0
char id=110  x=219   y=2     width=15    height=21    xoffset=2     yoffset=20    xadvance=18    page=0  chnl=0
char id=111  x=228   y=27    width=14    height=21    xoffset=1     yoffset=20    xadvance=16    page=0  chnl=0
char id=112  x=226   y=185   width=14    height=33    xoffset=2     yoffset=18    xadvance=17    page=0  chnl=0
char id=113  x=241   y=222   width=15    height=31    xoffset=1     yoffset=20    xadvance=17    page=0  chnl=0
char id=114  x=228   y=142   width=12    height=22    xoffset=1     yoffset=20    xadvance=12    page=0  chnl=0
char id=115  x=238   y=2     width=14    height=21    xoffset=0     yoffset=20    xadvance=15    page=0  chnl=0
char id=116  x=234   y=105   width=11    height=28    xoffset=1     yoffset=13    xadvance=13    page=0  chnl=0
char id=117  x=237   y=52    width=15    height=21    xoffset=2     yoffset=20    xadvance=18    page=0  chnl=0
char id=118  x=237   y=77    width=16    height=22    xoffset=0     yoffset=19    xadvance=15    page=0  chnl=0
char id=119  x=256   y=2     width=23    height=22    xoffset=0     yoffset=19    xadvance=22    page=0  chnl=0
char id=120  x=256   y=28    width=16    height=23    xoffset=0     yoffset=19    xadvance=15    page=0  chnl=0
char id=121  x=244   y=137   width=16    height=32    xoffset=1     yoffset=18    xadvance=16    page=0  chnl=0
char id=122  x=249   y=103   width=13    height=21    xoffset=1     yoffset=20    xadvance=14    page=0  chnl=0
char id=123  x=257   y=55    width=14    height=41    xoffset=2     yoffset=9     xadvance=21    page=0  chnl=0
char id=124  x=244   y=173   width=3     height=43    xoffset=9     yoffset=8     xadvance=21    page=0  chnl=0
char id=125  x=251   y=173   width=14    height=41    xoffset=1     yoffset=9     xadvance=21    page=0  chnl=0
char id=126  x=260   y=218   width=29    height=9     xoffset=3     yoffset=23    xadvance=35    page=0  chnl=0
char id=199  x=264   y=128   width=19    height=40    xoffset=1     yoffset=10    xadvance=20    page=0  chnl=0
char id=214  x=269   y=172   width=20    height=40    xoffset=1     yoffset=1     xadvance=22    page=0  chnl=0
char id=220  x=275   y=55    width=18    height=39    xoffset=2     yoffset=2     xadvance=22    page=0  chnl=0
char id=231  x=283   y=2     width=14    height=30    xoffset=1     yoffset=20    xadvance=15    page=0  chnl=0
char id=246  x=287   y=98    width=14    height=29    xoffset=1     yoffset=12    xadvance=16    page=0  chnl=0
char id=252  x=287   y=131   width=15    height=29    xoffset=2     yoffset=12    xadvance=18    page=0  chnl=0
char id=304  x=297   y=36    width=7     height=41    xoffset=4     yoffset=1     xadvance=12    page=0  chnl=0
char id=305  x=71    y=176   width=5     height=21    xoffset=3     yoffset=20    xadvance=10    page=0  chnl=0
char id=350  x=305   y=81    width=19    height=40    xoffset=0     yoffset=10    xadvance=19    page=0  chnl=0
char id=351  x=301   y=2     width=14    height=30    xoffset=0     yoffset=20    xadvance=15    page=0  chnl=0
kernings count=0
