info face="SF Digital Readout" size=120 bold=0 italic=0 charset="" unicode=1 stretchH=100 smooth=1 aa=1 padding=0,0,0,0 spacing=2,2
common lineHeight=72 base=71 scaleW=1024 scaleH=512 pages=1 packed=0 alphaChnl=0 redChnl=4 greenChnl=4 blueChnl=4
page id=0 file="sf120.png"
chars count=95
char id=32   x=2     y=2     width=0     height=0     xoffset=0     yoffset=71    xadvance=44    page=0  chnl=0
char id=33   x=2     y=6     width=22    height=65    xoffset=18    yoffset=7     xadvance=44    page=0  chnl=0
char id=34   x=2     y=75    width=17    height=14    xoffset=27    yoffset=0     xadvance=44    page=0  chnl=0
char id=35   x=2     y=93    width=47    height=44    xoffset=9     yoffset=-1    xadvance=44    page=0  chnl=0
char id=36   x=2     y=141   width=47    height=88    xoffset=6     yoffset=-8    xadvance=44    page=0  chnl=0
char id=37   x=28    y=2     width=43    height=72    xoffset=8     yoffset=0     xadvance=44    page=0  chnl=0
char id=38   x=2     y=233   width=50    height=71    xoffset=3     yoffset=0     xadvance=44    page=0  chnl=0
char id=39   x=53    y=78    width=11    height=14    xoffset=30    yoffset=0     xadvance=44    page=0  chnl=0
char id=40   x=53    y=96    width=35    height=71    xoffset=3     yoffset=0     xadvance=44    page=0  chnl=0
char id=41   x=75    y=2     width=35    height=71    xoffset=21    yoffset=0     xadvance=44    page=0  chnl=0
char id=42   x=2     y=308   width=43    height=63    xoffset=8     yoffset=4     xadvance=44    page=0  chnl=0
char id=43   x=53    y=171   width=33    height=58    xoffset=13    yoffset=7     xadvance=44    page=0  chnl=0
char id=44   x=68    y=78    width=10    height=14    xoffset=17    yoffset=64    xadvance=44    page=0  chnl=0
char id=45   x=82    y=77    width=33    height=8     xoffset=13    yoffset=32    xadvance=44    page=0  chnl=0
char id=46   x=23    y=78    width=10    height=8     xoffset=18    yoffset=64    xadvance=44    page=0  chnl=0
char id=47   x=114   y=2     width=43    height=63    xoffset=8     yoffset=4     xadvance=44    page=0  chnl=0
char id=48   x=2     y=375   width=53    height=71    xoffset=3     yoffset=0     xadvance=44    page=0  chnl=0
char id=49   x=56    y=233   width=20    height=64    xoffset=36    yoffset=4     xadvance=44    page=0  chnl=0
char id=50   x=59    y=301   width=53    height=71    xoffset=3     yoffset=0     xadvance=44    page=0  chnl=0
char id=51   x=90    y=171   width=50    height=71    xoffset=6     yoffset=0     xadvance=44    page=0  chnl=0
char id=52   x=92    y=89    width=46    height=64    xoffset=10    yoffset=4     xadvance=44    page=0  chnl=0
char id=53   x=142   y=69    width=47    height=71    xoffset=6     yoffset=0     xadvance=44    page=0  chnl=0
char id=54   x=59    y=376   width=50    height=71    xoffset=3     yoffset=0     xadvance=44    page=0  chnl=0
char id=55   x=113   y=376   width=37    height=68    xoffset=19    yoffset=0     xadvance=44    page=0  chnl=0
char id=56   x=116   y=246   width=53    height=71    xoffset=3     yoffset=0     xadvance=44    page=0  chnl=0
char id=57   x=144   y=144   width=50    height=71    xoffset=6     yoffset=0     xadvance=44    page=0  chnl=0
char id=58   x=80    y=246   width=15    height=36    xoffset=18    yoffset=36    xadvance=44    page=0  chnl=0
char id=59   x=116   y=321   width=16    height=42    xoffset=17    yoffset=36    xadvance=44    page=0  chnl=0
char id=60   x=161   y=2     width=23    height=63    xoffset=20    yoffset=4     xadvance=44    page=0  chnl=0
char id=61   x=144   y=219   width=36    height=19    xoffset=11    yoffset=27    xadvance=44    page=0  chnl=0
char id=62   x=188   y=2     width=23    height=63    xoffset=16    yoffset=4     xadvance=44    page=0  chnl=0
char id=63   x=154   y=321   width=38    height=72    xoffset=18    yoffset=0     xadvance=44    page=0  chnl=0
char id=64   x=193   y=69    width=53    height=71    xoffset=3     yoffset=0     xadvance=44    page=0  chnl=0
char id=65   x=173   y=242   width=53    height=69    xoffset=3     yoffset=0     xadvance=44    page=0  chnl=0
char id=66   x=198   y=144   width=50    height=71    xoffset=6     yoffset=0     xadvance=44    page=0  chnl=0
char id=67   x=154   y=397   width=50    height=71    xoffset=3     yoffset=0     xadvance=44    page=0  chnl=0
char id=68   x=196   y=315   width=50    height=71    xoffset=6     yoffset=0     xadvance=44    page=0  chnl=0
char id=69   x=230   y=219   width=50    height=71    xoffset=3     yoffset=0     xadvance=44    page=0  chnl=0
char id=70   x=208   y=390   width=50    height=68    xoffset=3     yoffset=0     xadvance=44    page=0  chnl=0
char id=71   x=250   y=294   width=50    height=71    xoffset=3     yoffset=0     xadvance=44    page=0  chnl=0
char id=72   x=250   y=2     width=53    height=65    xoffset=3     yoffset=4     xadvance=44    page=0  chnl=0
char id=73   x=2     y=451   width=21    height=58    xoffset=19    yoffset=7     xadvance=44    page=0  chnl=0
char id=74   x=250   y=71    width=53    height=67    xoffset=3     yoffset=4     xadvance=44    page=0  chnl=0
char id=75   x=252   y=142   width=48    height=64    xoffset=3     yoffset=4     xadvance=44    page=0  chnl=0
char id=76   x=284   y=210   width=37    height=67    xoffset=3     yoffset=4     xadvance=44    page=0  chnl=0
char id=77   x=262   y=369   width=53    height=65    xoffset=3     yoffset=4     xadvance=44    page=0  chnl=0
char id=78   x=262   y=438   width=53    height=69    xoffset=3     yoffset=0     xadvance=44    page=0  chnl=0
char id=79   x=304   y=281   width=53    height=71    xoffset=3     yoffset=0     xadvance=44    page=0  chnl=0
char id=80   x=319   y=356   width=53    height=68    xoffset=3     yoffset=0     xadvance=44    page=0  chnl=0
char id=81   x=319   y=428   width=53    height=71    xoffset=3     yoffset=0     xadvance=44    page=0  chnl=0
char id=82   x=307   y=2     width=53    height=68    xoffset=3     yoffset=0     xadvance=44    page=0  chnl=0
char id=83   x=307   y=74    width=47    height=71    xoffset=6     yoffset=0     xadvance=44    page=0  chnl=0
char id=84   x=325   y=149   width=34    height=65    xoffset=19    yoffset=0     xadvance=44    page=0  chnl=0
char id=85   x=358   y=74    width=53    height=67    xoffset=3     yoffset=4     xadvance=44    page=0  chnl=0
char id=86   x=364   y=2     width=37    height=64    xoffset=19    yoffset=4     xadvance=44    page=0  chnl=0
char id=87   x=405   y=2     width=53    height=65    xoffset=3     yoffset=4     xadvance=44    page=0  chnl=0
char id=88   x=361   y=218   width=43    height=64    xoffset=8     yoffset=4     xadvance=44    page=0  chnl=0
char id=89   x=361   y=286   width=46    height=61    xoffset=10    yoffset=4     xadvance=44    page=0  chnl=0
char id=90   x=408   y=145   width=47    height=71    xoffset=6     yoffset=0     xadvance=44    page=0  chnl=0
char id=91   x=376   y=351   width=35    height=71    xoffset=3     yoffset=0     xadvance=44    page=0  chnl=0
char id=92   x=215   y=2     width=21    height=63    xoffset=19    yoffset=4     xadvance=44    page=0  chnl=0
char id=93   x=376   y=426   width=35    height=71    xoffset=21    yoffset=0     xadvance=44    page=0  chnl=0
char id=94   x=27    y=450   width=26    height=25    xoffset=20    yoffset=-1    xadvance=44    page=0  chnl=0
char id=95   x=376   y=501   width=34    height=8     xoffset=6     yoffset=63    xadvance=44    page=0  chnl=0
char id=96   x=99    y=246   width=12    height=26    xoffset=34    yoffset=-27   xadvance=44    page=0  chnl=0
char id=97   x=415   y=71    width=53    height=69    xoffset=3     yoffset=0     xadvance=44    page=0  chnl=0
char id=98   x=411   y=220   width=50    height=71    xoffset=6     yoffset=0     xadvance=44    page=0  chnl=0
char id=99   x=459   y=144   width=50    height=71    xoffset=3     yoffset=0     xadvance=44    page=0  chnl=0
char id=100  x=472   y=2     width=50    height=71    xoffset=6     yoffset=0     xadvance=44    page=0  chnl=0
char id=101  x=415   y=295   width=50    height=71    xoffset=3     yoffset=0     xadvance=44    page=0  chnl=0
char id=102  x=465   y=219   width=50    height=68    xoffset=3     yoffset=0     xadvance=44    page=0  chnl=0
char id=103  x=513   y=77    width=50    height=71    xoffset=3     yoffset=0     xadvance=44    page=0  chnl=0
char id=104  x=526   y=2     width=53    height=65    xoffset=3     yoffset=4     xadvance=44    page=0  chnl=0
char id=105  x=325   y=218   width=21    height=58    xoffset=19    yoffset=7     xadvance=44    page=0  chnl=0
char id=106  x=415   y=370   width=53    height=67    xoffset=3     yoffset=4     xadvance=44    page=0  chnl=0
char id=107  x=415   y=441   width=48    height=64    xoffset=3     yoffset=4     xadvance=44    page=0  chnl=0
char id=108  x=363   y=145   width=37    height=67    xoffset=3     yoffset=4     xadvance=44    page=0  chnl=0
char id=109  x=467   y=441   width=53    height=65    xoffset=3     yoffset=4     xadvance=44    page=0  chnl=0
char id=110  x=469   y=291   width=53    height=69    xoffset=3     yoffset=0     xadvance=44    page=0  chnl=0
char id=111  x=472   y=364   width=53    height=71    xoffset=3     yoffset=0     xadvance=44    page=0  chnl=0
char id=112  x=524   y=439   width=53    height=68    xoffset=3     yoffset=0     xadvance=44    page=0  chnl=0
char id=113  x=519   y=152   width=53    height=71    xoffset=3     yoffset=0     xadvance=44    page=0  chnl=0
char id=114  x=567   y=71    width=53    height=68    xoffset=3     yoffset=0     xadvance=44    page=0  chnl=0
char id=115  x=526   y=227   width=47    height=71    xoffset=6     yoffset=0     xadvance=44    page=0  chnl=0
char id=116  x=583   y=2     width=34    height=65    xoffset=19    yoffset=0     xadvance=44    page=0  chnl=0
char id=117  x=576   y=143   width=53    height=67    xoffset=3     yoffset=4     xadvance=44    page=0  chnl=0
char id=118  x=621   y=2     width=37    height=64    xoffset=19    yoffset=4     xadvance=44    page=0  chnl=0
char id=119  x=624   y=70    width=53    height=65    xoffset=3     yoffset=4     xadvance=44    page=0  chnl=0
char id=120  x=662   y=2     width=43    height=64    xoffset=8     yoffset=4     xadvance=44    page=0  chnl=0
char id=121  x=529   y=302   width=46    height=61    xoffset=10    yoffset=4     xadvance=44    page=0  chnl=0
char id=122  x=577   y=214   width=47    height=71    xoffset=6     yoffset=0     xadvance=44    page=0  chnl=0
char id=123  x=579   y=289   width=35    height=71    xoffset=3     yoffset=0     xadvance=44    page=0  chnl=0
char id=124  x=57    y=451   width=21    height=58    xoffset=3     yoffset=7     xadvance=12    page=0  chnl=0
char id=125  x=579   y=364   width=35    height=71    xoffset=21    yoffset=0     xadvance=44    page=0  chnl=0
char id=126  x=27    y=479   width=22    height=12    xoffset=25    yoffset=0     xadvance=44    page=0  chnl=0
kernings count=0
