info face="SF Digital Readout" size=80 bold=0 italic=0 charset="" unicode=1 stretchH=100 smooth=1 aa=1 padding=0,0,0,0 spacing=2,2
common lineHeight=48 base=47 scaleW=512 scaleH=512 pages=1 packed=0 alphaChnl=0 redChnl=4 greenChnl=4 blueChnl=4
page id=0 file="sf80.png"
chars count=95
char id=32   x=2     y=2     width=0     height=0     xoffset=0     yoffset=47    xadvance=29    page=0  chnl=0
char id=33   x=2     y=6     width=15    height=44    xoffset=12    yoffset=4     xadvance=29    page=0  chnl=0
char id=34   x=2     y=54    width=12    height=10    xoffset=18    yoffset=-1    xadvance=29    page=0  chnl=0
char id=35   x=2     y=68    width=31    height=29    xoffset=6     yoffset=-1    xadvance=29    page=0  chnl=0
char id=36   x=21    y=2     width=32    height=59    xoffset=4     yoffset=-6    xadvance=29    page=0  chnl=0
char id=37   x=2     y=101   width=29    height=49    xoffset=5     yoffset=-1    xadvance=29    page=0  chnl=0
char id=38   x=2     y=154   width=34    height=47    xoffset=2     yoffset=0     xadvance=29    page=0  chnl=0
char id=39   x=35    y=101   width=7     height=10    xoffset=20    yoffset=-1    xadvance=29    page=0  chnl=0
char id=40   x=2     y=205   width=23    height=47    xoffset=2     yoffset=0     xadvance=29    page=0  chnl=0
char id=41   x=2     y=256   width=23    height=47    xoffset=14    yoffset=0     xadvance=29    page=0  chnl=0
char id=42   x=2     y=307   width=29    height=42    xoffset=5     yoffset=3     xadvance=29    page=0  chnl=0
char id=43   x=29    y=205   width=23    height=39    xoffset=8     yoffset=4     xadvance=29    page=0  chnl=0
char id=44   x=37    y=65    width=7     height=10    xoffset=11    yoffset=42    xadvance=29    page=0  chnl=0
char id=45   x=37    y=79    width=23    height=5     xoffset=8     yoffset=21    xadvance=29    page=0  chnl=0
char id=46   x=37    y=88    width=7     height=6     xoffset=12    yoffset=42    xadvance=29    page=0  chnl=0
char id=47   x=29    y=248   width=29    height=42    xoffset=5     yoffset=3     xadvance=29    page=0  chnl=0
char id=48   x=57    y=2     width=35    height=47    xoffset=2     yoffset=0     xadvance=29    page=0  chnl=0
char id=49   x=40    y=115   width=13    height=43    xoffset=24    yoffset=2     xadvance=29    page=0  chnl=0
char id=50   x=56    y=162   width=35    height=47    xoffset=2     yoffset=0     xadvance=29    page=0  chnl=0
char id=51   x=57    y=88    width=33    height=47    xoffset=4     yoffset=0     xadvance=29    page=0  chnl=0
char id=52   x=94    y=53    width=31    height=43    xoffset=6     yoffset=2     xadvance=29    page=0  chnl=0
char id=53   x=96    y=2     width=32    height=47    xoffset=4     yoffset=0     xadvance=29    page=0  chnl=0
char id=54   x=94    y=100   width=34    height=47    xoffset=2     yoffset=0     xadvance=29    page=0  chnl=0
char id=55   x=2     y=353   width=24    height=45    xoffset=13    yoffset=0     xadvance=29    page=0  chnl=0
char id=56   x=2     y=402   width=35    height=47    xoffset=2     yoffset=0     xadvance=29    page=0  chnl=0
char id=57   x=2     y=453   width=33    height=47    xoffset=4     yoffset=0     xadvance=29    page=0  chnl=0
char id=58   x=40    y=162   width=10    height=25    xoffset=12    yoffset=23    xadvance=29    page=0  chnl=0
char id=59   x=64    y=53    width=11    height=29    xoffset=11    yoffset=23    xadvance=29    page=0  chnl=0
char id=60   x=129   y=53    width=16    height=42    xoffset=13    yoffset=3     xadvance=29    page=0  chnl=0
char id=61   x=57    y=139   width=25    height=12    xoffset=7     yoffset=18    xadvance=29    page=0  chnl=0
char id=62   x=30    y=353   width=15    height=42    xoffset=11    yoffset=3     xadvance=29    page=0  chnl=0
char id=63   x=35    y=294   width=25    height=48    xoffset=12    yoffset=0     xadvance=29    page=0  chnl=0
char id=64   x=132   y=2     width=35    height=47    xoffset=2     yoffset=0     xadvance=29    page=0  chnl=0
char id=65   x=39    y=453   width=35    height=45    xoffset=2     yoffset=0     xadvance=29    page=0  chnl=0
char id=66   x=41    y=399   width=33    height=47    xoffset=4     yoffset=0     xadvance=29    page=0  chnl=0
char id=67   x=49    y=346   width=34    height=47    xoffset=2     yoffset=0     xadvance=29    page=0  chnl=0
char id=68   x=62    y=213   width=33    height=47    xoffset=4     yoffset=0     xadvance=29    page=0  chnl=0
char id=69   x=95    y=151   width=34    height=47    xoffset=2     yoffset=0     xadvance=29    page=0  chnl=0
char id=70   x=132   y=99    width=34    height=45    xoffset=2     yoffset=0     xadvance=29    page=0  chnl=0
char id=71   x=64    y=264   width=34    height=47    xoffset=2     yoffset=0     xadvance=29    page=0  chnl=0
char id=72   x=99    y=202   width=35    height=43    xoffset=2     yoffset=2     xadvance=29    page=0  chnl=0
char id=73   x=149   y=53    width=15    height=39    xoffset=12    yoffset=4     xadvance=29    page=0  chnl=0
char id=74   x=133   y=148   width=35    height=45    xoffset=2     yoffset=2     xadvance=29    page=0  chnl=0
char id=75   x=170   y=53    width=32    height=43    xoffset=2     yoffset=2     xadvance=29    page=0  chnl=0
char id=76   x=171   y=2     width=25    height=45    xoffset=2     yoffset=2     xadvance=29    page=0  chnl=0
char id=77   x=170   y=100   width=35    height=44    xoffset=2     yoffset=2     xadvance=29    page=0  chnl=0
char id=78   x=200   y=2     width=35    height=46    xoffset=2     yoffset=0     xadvance=29    page=0  chnl=0
char id=79   x=78    y=397   width=35    height=47    xoffset=2     yoffset=0     xadvance=29    page=0  chnl=0
char id=80   x=78    y=448   width=35    height=45    xoffset=2     yoffset=0     xadvance=29    page=0  chnl=0
char id=81   x=87    y=315   width=35    height=47    xoffset=2     yoffset=0     xadvance=29    page=0  chnl=0
char id=82   x=102   y=249   width=35    height=45    xoffset=2     yoffset=0     xadvance=29    page=0  chnl=0
char id=83   x=138   y=197   width=32    height=47    xoffset=4     yoffset=0     xadvance=29    page=0  chnl=0
char id=84   x=206   y=52    width=24    height=43    xoffset=12    yoffset=0     xadvance=29    page=0  chnl=0
char id=85   x=172   y=148   width=35    height=45    xoffset=2     yoffset=2     xadvance=29    page=0  chnl=0
char id=86   x=209   y=99    width=24    height=43    xoffset=13    yoffset=2     xadvance=29    page=0  chnl=0
char id=87   x=117   y=366   width=35    height=44    xoffset=2     yoffset=2     xadvance=29    page=0  chnl=0
char id=88   x=234   y=52    width=29    height=43    xoffset=5     yoffset=2     xadvance=29    page=0  chnl=0
char id=89   x=239   y=2     width=31    height=41    xoffset=6     yoffset=2     xadvance=29    page=0  chnl=0
char id=90   x=126   y=298   width=32    height=47    xoffset=4     yoffset=0     xadvance=29    page=0  chnl=0
char id=91   x=117   y=414   width=23    height=47    xoffset=2     yoffset=0     xadvance=29    page=0  chnl=0
char id=92   x=117   y=465   width=14    height=42    xoffset=13    yoffset=3     xadvance=29    page=0  chnl=0
char id=93   x=144   y=414   width=23    height=47    xoffset=14    yoffset=0     xadvance=29    page=0  chnl=0
char id=94   x=64    y=315   width=18    height=17    xoffset=13    yoffset=-1    xadvance=29    page=0  chnl=0
char id=95   x=2     y=504   width=23    height=5     xoffset=4     yoffset=42    xadvance=29    page=0  chnl=0
char id=96   x=79    y=53    width=9     height=17    xoffset=22    yoffset=-18   xadvance=29    page=0  chnl=0
char id=97   x=135   y=465   width=35    height=45    xoffset=2     yoffset=0     xadvance=29    page=0  chnl=0
char id=98   x=156   y=349   width=33    height=47    xoffset=4     yoffset=0     xadvance=29    page=0  chnl=0
char id=99   x=171   y=400   width=34    height=47    xoffset=2     yoffset=0     xadvance=29    page=0  chnl=0
char id=100  x=174   y=451   width=33    height=47    xoffset=4     yoffset=0     xadvance=29    page=0  chnl=0
char id=101  x=162   y=248   width=34    height=47    xoffset=2     yoffset=0     xadvance=29    page=0  chnl=0
char id=102  x=162   y=299   width=34    height=45    xoffset=2     yoffset=0     xadvance=29    page=0  chnl=0
char id=103  x=174   y=197   width=34    height=47    xoffset=2     yoffset=0     xadvance=29    page=0  chnl=0
char id=104  x=211   y=146   width=35    height=43    xoffset=2     yoffset=2     xadvance=29    page=0  chnl=0
char id=105  x=141   y=248   width=15    height=39    xoffset=12    yoffset=4     xadvance=29    page=0  chnl=0
char id=106  x=193   y=348   width=35    height=45    xoffset=2     yoffset=2     xadvance=29    page=0  chnl=0
char id=107  x=237   y=99    width=32    height=43    xoffset=2     yoffset=2     xadvance=29    page=0  chnl=0
char id=108  x=267   y=47    width=25    height=45    xoffset=2     yoffset=2     xadvance=29    page=0  chnl=0
char id=109  x=209   y=397   width=35    height=44    xoffset=2     yoffset=2     xadvance=29    page=0  chnl=0
char id=110  x=211   y=445   width=35    height=46    xoffset=2     yoffset=0     xadvance=29    page=0  chnl=0
char id=111  x=200   y=248   width=35    height=47    xoffset=2     yoffset=0     xadvance=29    page=0  chnl=0
char id=112  x=200   y=299   width=35    height=45    xoffset=2     yoffset=0     xadvance=29    page=0  chnl=0
char id=113  x=212   y=193   width=35    height=47    xoffset=2     yoffset=0     xadvance=29    page=0  chnl=0
char id=114  x=232   y=348   width=35    height=45    xoffset=2     yoffset=0     xadvance=29    page=0  chnl=0
char id=115  x=239   y=244   width=32    height=47    xoffset=4     yoffset=0     xadvance=29    page=0  chnl=0
char id=116  x=250   y=146   width=24    height=43    xoffset=12    yoffset=0     xadvance=29    page=0  chnl=0
char id=117  x=273   y=96    width=35    height=45    xoffset=2     yoffset=2     xadvance=29    page=0  chnl=0
char id=118  x=248   y=397   width=24    height=43    xoffset=13    yoffset=2     xadvance=29    page=0  chnl=0
char id=119  x=251   y=193   width=35    height=44    xoffset=2     yoffset=2     xadvance=29    page=0  chnl=0
char id=120  x=278   y=145   width=29    height=43    xoffset=5     yoffset=2     xadvance=29    page=0  chnl=0
char id=121  x=274   y=2     width=31    height=41    xoffset=6     yoffset=2     xadvance=29    page=0  chnl=0
char id=122  x=239   y=295   width=32    height=47    xoffset=4     yoffset=0     xadvance=29    page=0  chnl=0
char id=123  x=271   y=346   width=23    height=47    xoffset=2     yoffset=0     xadvance=29    page=0  chnl=0
char id=124  x=296   y=47    width=14    height=39    xoffset=2     yoffset=4     xadvance=8     page=0  chnl=0
char id=125  x=250   y=444   width=23    height=47    xoffset=14    yoffset=0     xadvance=29    page=0  chnl=0
char id=126  x=102   y=298   width=16    height=9     xoffset=16    yoffset=-1    xadvance=29    page=0  chnl=0
kernings count=0
